<svg width="21" height="21" viewBox="0 0 21 21" fill="none" xmlns="http://www.w3.org/2000/svg">
<path d="M20.086 4.5182L19.5769 4.35909C19.4497 4.32727 19.3224 4.29545 19.1633 4.29545C18.5906 4.29545 18.0815 4.67726 17.8906 5.21817L17.6042 6.07724V5.44087V5.40909C17.6042 5.31363 17.5406 5.21817 17.4769 5.15453L12.2588 0.095462C12.1951 0.0318207 12.0997 0 12.036 0H1.8224C1.63147 0 1.50423 0.127283 1.50423 0.318164V1.30452H0.326954C0.13603 1.30452 0.00878906 1.4318 0.00878906 1.62269V20.6818C0.00878906 20.8727 0.136072 21 0.326954 21H15.7906C15.9815 21 16.1087 20.8727 16.1087 20.6818V19.6954H17.286C17.4769 19.6954 17.6042 19.5682 17.6042 19.3773V15.0818L18.4951 13.8727L18.5269 13.7773L20.9133 6.1727C21.1679 5.47273 20.786 4.7409 20.086 4.5182ZM12.3542 1.08182L16.5224 5.09093H12.3542V1.08182ZM15.4724 20.3636H0.645118V1.94089H1.50419V19.3773C1.50419 19.5682 1.63147 19.6954 1.82236 19.6954H15.4724V20.3636H15.4724ZM16.9997 19.0591H16.9679H2.14056V0.636371H11.7178V5.40909C11.7178 5.60002 11.8451 5.72726 12.036 5.72726H16.9996V8.11364L15.5042 12.8227V12.9182L15.5678 16.9591C15.5678 17.0864 15.6633 17.2137 15.7906 17.2455C15.9179 17.2773 16.0769 17.2455 16.1406 17.1182L16.9996 15.9727V19.0591H16.9997ZM16.1724 15.9727L16.1087 13.3318L17.6996 13.8409L16.1724 15.9727ZM20.3406 5.98182L18.0497 13.2682L16.2042 12.6637L18.4951 5.40909C18.6224 5.05911 19.0042 4.83636 19.3542 4.96364L19.8633 5.12275C20.2451 5.21817 20.4678 5.63184 20.3406 5.98182Z" fill="#171E6D"/>
<path d="M4.30449 5.72749H8.88634C9.07726 5.72749 9.2045 5.6002 9.2045 5.40932V2.16387C9.2045 1.97294 9.07722 1.8457 8.88634 1.8457H4.30449C4.11357 1.8457 3.98633 1.97299 3.98633 2.16387V5.40932C3.98633 5.56843 4.14543 5.72749 4.30449 5.72749ZM4.6227 2.48203H8.56817V5.09112H4.6227V2.48203Z" fill="#171E6D"/>
<path d="M3.66777 8.71836H13.3405C13.5314 8.71836 13.6587 8.59108 13.6587 8.4002C13.6587 8.20927 13.5314 8.08203 13.3405 8.08203H3.66777C3.47685 8.08203 3.34961 8.20931 3.34961 8.4002C3.34957 8.59108 3.47685 8.71836 3.66777 8.71836Z" fill="#171E6D"/>
<path d="M3.66777 11.0406H13.3405C13.5314 11.0406 13.6587 10.9133 13.6587 10.7225C13.6587 10.5316 13.5314 10.4043 13.3405 10.4043H3.66777C3.47685 10.4043 3.34961 10.5316 3.34961 10.7225C3.34961 10.9133 3.47685 11.0406 3.66777 11.0406Z" fill="#171E6D"/>
<path d="M3.66777 13.3639H13.3405C13.5314 13.3639 13.6587 13.2366 13.6587 13.0457C13.6587 12.8548 13.5314 12.7275 13.3405 12.7275H3.66777C3.47685 12.7275 3.34961 12.8548 3.34961 13.0457C3.34961 13.2366 3.47685 13.3639 3.66777 13.3639Z" fill="#171E6D"/>
<path d="M13.6268 15.368C13.6268 15.177 13.4996 15.0498 13.3087 15.0498H3.66777C3.47685 15.0498 3.34961 15.1771 3.34961 15.368C3.34961 15.5589 3.47689 15.6861 3.66777 15.6861H13.3405C13.4996 15.6861 13.6268 15.527 13.6268 15.368Z" fill="#171E6D"/>
<path d="M14.6774 17.373H9.87285C9.68193 17.373 9.55469 17.5003 9.55469 17.6912C9.55469 17.8821 9.68197 18.0094 9.87285 18.0094H14.6456C14.8365 18.0094 14.9637 17.8821 14.9637 17.6912C14.9637 17.5003 14.8365 17.373 14.6774 17.373Z" fill="#171E6D"/>
</svg>
