<svg width="46" height="46" viewBox="0 0 46 46" fill="none" xmlns="http://www.w3.org/2000/svg">
<path d="M45.6403 0.10607C45.4167 -0.027609 45.1392 -0.0355789 44.9092 0.0875938L34.129 5.83687L23.3496 0.0875938C23.1304 -0.0290581 22.8703 -0.0290581 22.6511 0.0875938L11.871 5.83687L1.09153 0.0875938C0.860037 -0.0355789 0.58326 -0.0283336 0.359737 0.10607C0.137302 0.239386 0 0.481384 0 0.741859V39.3225C0 39.5964 0.150706 39.8478 0.392342 39.9767L11.5214 45.9122C11.6311 45.9709 11.7507 45.9999 11.871 45.9999C11.9912 45.9999 12.1108 45.9709 12.2206 45.9122L20.7742 41.3508V43.7741C20.7742 45.0011 21.773 45.9999 23 45.9999H40.8065C42.0335 45.9999 43.0323 45.0011 43.0323 43.7741V41.3501L45.6077 39.9767C45.8493 39.8478 46 39.5964 46 39.3225V0.741859C46 0.481384 45.8627 0.239386 45.6403 0.10607ZM11.5214 7.3316C11.7405 7.44826 12.0007 7.44826 12.2198 7.3316L17.029 4.76671L16.3751 6.40129C16.3588 6.44367 16.3454 6.48751 16.3367 6.53098L15.5948 10.2407C15.5756 10.3374 15.5756 10.4359 15.5948 10.5323L16.2715 13.917L12.6477 18.7479L11.8166 17.5013L11.1062 14.6582C11.0236 14.3282 10.7276 14.0967 10.3871 14.0967H7.41935C7.27336 14.0967 7.12917 14.1405 7.00745 14.2213L5.39896 15.2933L4.32699 13.6848C4.28098 13.6152 4.22157 13.5536 4.15491 13.5033L1.48387 11.4999V1.97866L11.5214 7.3316ZM1.48387 19.7489L3.3782 20.6955C3.53615 20.7741 3.71946 20.794 3.88936 20.7516L5.93548 20.2405V22.258C5.93548 22.4866 6.04091 22.7025 6.22096 22.8427C6.40064 22.9829 6.63576 23.0325 6.85711 22.9774L9.50641 22.3152L11.2479 23.4756L11.871 25.346V27.988L9.96722 31.1612H7.41935C7.27336 31.1612 7.12917 31.205 7.00745 31.2858L4.78164 32.7697C4.52044 32.9432 4.39727 33.2631 4.47371 33.5674L5.19355 36.446V37.0967C5.19355 37.4372 5.42504 37.7339 5.7558 37.8161L8.3283 38.4595L8.90323 40.1847V42.834L1.48387 38.8772V19.7489ZM25.2258 20.9987L28.3428 16.3225H38.5806V37.0967H25.2258V20.9987ZM28.1935 12.0748C28.1935 13.2501 27.8487 14.389 27.1962 15.3675L24.4839 19.4362L21.7715 15.3668C21.1191 14.389 20.7742 13.2501 20.7742 12.0571C20.7742 10.1019 22.2048 8.40321 24.0307 8.18802C24.1843 8.1699 24.3368 8.16121 24.4882 8.16121C25.4001 8.16121 26.2601 8.48617 26.9477 9.09841C27.7396 9.80158 28.1935 10.812 28.1935 11.8709V12.0748ZM41.5484 43.7741C41.5484 44.1827 41.2158 44.516 40.8065 44.516H23C22.5906 44.516 22.2581 44.1827 22.2581 43.7741V18.7722L23.7419 20.998V37.8386C23.7419 38.248 24.0734 38.5805 24.4839 38.5805H39.3226C39.733 38.5805 40.0645 38.248 40.0645 37.8386V15.5806C40.0645 15.1708 39.733 14.8386 39.3226 14.8386H29.1239C29.3177 14.3593 29.4659 13.8645 29.555 13.3548H40.8065C41.2158 13.3548 41.5484 13.6877 41.5484 14.0967V43.7741ZM44.5161 38.8772L43.0323 39.6688V14.0967C43.0323 12.8697 42.0335 11.8709 40.8065 11.8709H29.6774C29.6774 10.3892 29.0424 8.97451 27.9338 7.98913C26.8271 7.0052 25.3439 6.53931 23.8561 6.71429C21.2535 7.02077 19.2903 9.31795 19.2903 12.0748C19.2903 13.5439 19.7214 14.9669 20.5369 16.1903L20.7742 16.5464V39.6688L11.871 44.4175L10.3871 43.6256V40.0644C10.3871 39.9851 10.3737 39.9057 10.3487 39.83L9.60676 37.6042C9.52706 37.3637 9.32926 37.1804 9.08291 37.1188L6.67742 36.517V36.3547C6.67742 36.2939 6.67017 36.2337 6.65532 36.1743L6.04018 33.7141L7.64433 32.6451H10.3871C10.6483 32.6451 10.8892 32.5085 11.0229 32.2853L13.2487 28.5757C13.3186 28.4597 13.3548 28.3279 13.3548 28.1935V25.2257C13.3548 25.1464 13.3414 25.067 13.3164 24.9913L12.5745 22.7655C12.5223 22.609 12.4191 22.4746 12.2821 22.3826L10.0563 20.8987C9.88173 20.7828 9.66726 20.7458 9.46475 20.7962L7.41935 21.3074V19.2902C7.41935 19.0616 7.31393 18.8457 7.13388 18.7055C6.95347 18.5653 6.71836 18.5142 6.49773 18.5704L3.7959 19.2457L1.48387 18.0897V13.3548L3.16301 14.6137L4.57623 16.7337C4.80266 17.0742 5.26347 17.1659 5.60545 16.9391L7.64433 15.5806H9.80782L10.4099 17.9868C10.4302 18.069 10.465 18.1476 10.5124 18.2183L11.9963 20.4441C12.13 20.6444 12.3517 20.7672 12.5937 20.7741H12.6136C12.8466 20.7741 13.0668 20.6643 13.207 20.4774L17.6586 14.5419C17.7858 14.3727 17.834 14.1583 17.793 13.9514L17.0794 10.387L17.7789 6.88963L19.0617 3.68279L23 1.58233L33.7794 7.3316C33.9986 7.44826 34.2587 7.44826 34.4779 7.3316L44.5161 1.97866V38.8772Z" fill="#8DAAEC"/>
<path d="M24.4836 9.64551C23.2566 9.64551 22.2578 10.6443 22.2578 11.8713C22.2578 13.0983 23.2566 14.0971 24.4836 14.0971C25.7106 14.0971 26.7094 13.0983 26.7094 11.8713C26.7094 10.6443 25.7106 9.64551 24.4836 9.64551ZM24.4836 12.6133C24.0743 12.6133 23.7417 12.28 23.7417 11.8713C23.7417 11.4623 24.0743 11.1294 24.4836 11.1294C24.893 11.1294 25.2256 11.4623 25.2256 11.8713C25.2256 12.28 24.893 12.6133 24.4836 12.6133Z" fill="#FCBB01"/>
<path d="M31.9035 39.3223C30.6765 39.3223 29.6777 40.3211 29.6777 41.5481C29.6777 42.7751 30.6765 43.7739 31.9035 43.7739C33.1306 43.7739 34.1293 42.7751 34.1293 41.5481C34.1293 40.3211 33.1306 39.3223 31.9035 39.3223ZM31.9035 42.29C31.4942 42.29 31.1616 41.9567 31.1616 41.5481C31.1616 41.1391 31.4942 40.8061 31.9035 40.8061C32.3129 40.8061 32.6455 41.1391 32.6455 41.5481C32.6455 41.9567 32.3129 42.29 31.9035 42.29Z" fill="#8DAAEC"/>
<path d="M30.4187 23.7422H26.709V25.2261H29.6767V32.6454H26.709V34.1293H30.4187C30.8291 34.1293 31.1606 33.7967 31.1606 33.3873V24.4841C31.1606 24.0744 30.8291 23.7422 30.4187 23.7422Z" fill="#FCBB01"/>
<path d="M29.6767 20.7744H26.709V22.2583H30.4187C30.8291 22.2583 31.1606 21.9257 31.1606 21.5163V17.8066H29.6767V20.7744Z" fill="#8DAAEC"/>
<path d="M34.1284 17.8066H32.6445V21.5163C32.6445 21.9257 32.976 22.2583 33.3865 22.2583H37.0961V20.7744H34.1284V17.8066Z" fill="#FCBB01"/>
<path d="M32.6445 24.4841V27.4519C32.6445 27.8612 32.976 28.1938 33.3865 28.1938H37.0961V26.7099H34.1284V25.2261H37.0961V23.7422H33.3865C32.976 23.7422 32.6445 24.0744 32.6445 24.4841Z" fill="#8DAAEC"/>
<path d="M32.6445 30.4197V34.1293H34.1284V31.1616H37.0961V29.6777H33.3865C32.976 29.6777 32.6445 30.0099 32.6445 30.4197Z" fill="#FCBB01"/>
<path d="M14.0969 37.0967C12.8699 37.0967 11.8711 38.0955 11.8711 39.3225C11.8711 40.5495 12.8699 41.5483 14.0969 41.5483C15.3239 41.5483 16.3227 40.5495 16.3227 39.3225C16.3227 38.0955 15.3239 37.0967 14.0969 37.0967ZM14.0969 40.0644C13.6875 40.0644 13.355 39.7311 13.355 39.3225C13.355 38.9135 13.6875 38.5805 14.0969 38.5805C14.5063 38.5805 14.8388 38.9135 14.8388 39.3225C14.8388 39.7311 14.5063 40.0644 14.0969 40.0644Z" fill="#8DAAEC"/>
<path d="M16.3232 29.6777C14.6865 29.6777 13.3555 31.0087 13.3555 32.6455C13.3555 34.2822 14.6865 35.6132 16.3232 35.6132C17.96 35.6132 19.291 34.2822 19.291 32.6455C19.291 31.0087 17.96 29.6777 16.3232 29.6777ZM16.3232 34.1293C15.5048 34.1293 14.8393 33.4639 14.8393 32.6455C14.8393 31.8271 15.5048 31.1616 16.3232 31.1616C17.1416 31.1616 17.8071 31.8271 17.8071 32.6455C17.8071 33.4639 17.1416 34.1293 16.3232 34.1293Z" fill="#8DAAEC"/>
</svg>
