<svg width="7" height="5" viewBox="0 0 7 5" fill="none" xmlns="http://www.w3.org/2000/svg">
<path d="M1.17422 0C0.319867 0 -0.141042 1.00212 0.414964 1.65079L2.74074 4.3642C3.13984 4.82981 3.86016 4.82981 4.25926 4.3642L6.58504 1.65079C7.14104 1.00212 6.68013 0 5.82578 0H1.17422Z" fill="#6979F8"/>
</svg>
