<svg width="26" height="22" viewBox="0 0 26 22" fill="none" xmlns="http://www.w3.org/2000/svg">
<path d="M26 12.4512C26 9.12306 23.2924 6.41546 19.9643 6.41546C18.7844 6.41546 17.6301 6.76501 16.6511 7.40758C16.3969 6.29434 16.0589 5.22184 15.6508 4.26216C14.5542 1.68375 13.1182 0.263672 11.6071 0.263672C10.0944 0.263672 8.65834 1.67789 7.56362 4.24579C7.17797 5.15039 6.85488 6.15749 6.60597 7.20619L5.09077 1.65044C5.03564 1.44847 4.85219 1.30831 4.64285 1.30831C4.43352 1.30831 4.25001 1.44847 4.19493 1.65049L0.016363 16.9719C-0.0217084 17.1115 0.00748355 17.2609 0.0952916 17.3759C0.183158 17.4909 0.3196 17.5583 0.464283 17.5583H4.17857V21.2726C4.17857 21.529 4.38645 21.7369 4.64285 21.7369C4.89926 21.7369 5.10714 21.529 5.10714 21.2726V17.5583H8.82142C8.96611 17.5583 9.10255 17.4909 9.19036 17.3758C9.26186 17.2822 9.29372 17.1658 9.28287 17.0504C9.8573 17.3148 10.484 17.4843 11.1429 17.5388V21.2726C11.1429 21.529 11.3507 21.7369 11.6071 21.7369C11.8635 21.7369 12.0714 21.529 12.0714 21.2726V17.5389C13.2767 17.4391 14.3745 16.9546 15.2413 16.2087C16.2868 17.5218 17.8288 18.3398 19.5 18.4684V21.2726C19.5 21.529 19.7079 21.7369 19.9643 21.7369C20.2207 21.7369 20.4286 21.529 20.4286 21.2726V18.4692C23.5406 18.2314 26 15.6231 26 12.4512ZM8.21356 16.6297H5.10714V15.8935L5.92875 15.0719C6.11005 14.8905 6.11005 14.5966 5.92875 14.4153C5.74739 14.234 5.4535 14.234 5.27213 14.4153L5.10714 14.5802V11.5226C5.10714 11.2662 4.89926 11.0583 4.64285 11.0583C4.38645 11.0583 4.17857 11.2662 4.17857 11.5226V13.6517L3.5783 13.0514C3.39694 12.8702 3.10305 12.8702 2.92169 13.0514C2.74038 13.2328 2.74038 13.5267 2.92169 13.7081L4.17857 14.9649V15.7008C4.17857 15.701 4.17857 15.7012 4.17857 15.7014V16.6297H1.07215L4.64285 3.53712L6.21591 9.30488C6.09351 10.2069 6.02846 11.1104 6.02846 11.9796C6.02846 13.7443 6.85233 15.3201 8.13538 16.343L8.21356 16.6297ZM12.0714 15.8935L13.7926 14.1723C13.9739 13.991 13.9739 13.6971 13.7926 13.5157C13.6112 13.3345 13.3173 13.3345 13.136 13.5157L12.0714 14.5802V12.6435L13.3283 11.3866C13.5096 11.2053 13.5096 10.9114 13.3283 10.73C13.1469 10.5488 12.853 10.5488 12.6717 10.73L12.0714 11.3302V10.1297C12.0714 9.87334 11.8635 9.66546 11.6071 9.66546C11.3507 9.66546 11.1429 9.87334 11.1429 10.1297V12.4509C11.1429 12.4511 11.1429 12.4513 11.1429 12.4515V13.6516L10.0783 12.5871C9.89694 12.4058 9.60305 12.4058 9.42169 12.5871C9.24038 12.7685 9.24038 13.0623 9.42169 13.2437L11.1429 14.9649V15.7008C11.1429 15.701 11.1429 15.7012 11.1429 15.7014V16.6064C8.79601 16.3726 6.95703 14.3869 6.95703 11.9796C6.95703 9.5105 7.50309 6.75543 8.41779 4.60997C9.3438 2.43798 10.5063 1.19224 11.6071 1.19224C12.706 1.19224 13.8684 2.44367 14.7963 4.62558C15.7111 6.77661 16.2572 9.52582 16.2572 11.9796C16.2572 14.387 14.4183 16.3728 12.0714 16.6065V15.8935ZM20.4286 17.537V16.8221L22.1497 15.101C22.331 14.9196 22.331 14.6257 22.1497 14.4444C21.9684 14.2631 21.6745 14.2631 21.4931 14.4444L20.4286 15.5088V12.4512C20.4286 12.1948 20.2207 11.9869 19.9643 11.9869C19.7079 11.9869 19.5 12.1948 19.5 12.4512V14.5803L18.4354 13.5157C18.2541 13.3345 17.9602 13.3345 17.7788 13.5157C17.5975 13.6971 17.5975 13.991 17.7788 14.1723L19.5 15.8935V16.6294C19.5 16.6296 19.5 16.6298 19.5 16.63V17.5371C18.0759 17.4074 16.7686 16.6853 15.8979 15.5408C16.7017 14.5739 17.1858 13.3323 17.1858 11.9796C17.1858 10.8216 17.0692 9.60046 16.8537 8.40132C17.7419 7.71882 18.8394 7.34403 19.9643 7.34403C22.7803 7.34403 25.0714 9.63511 25.0714 12.4512C25.0714 15.1107 23.0279 17.3016 20.4286 17.537Z" fill="#415364"/>
</svg>
